…
 The other trees can be printed/plotted similarly by specifying the tree argument. Users are referred to the Package vignette on fitting time-invariant survival tree for different printing/plotting options.

Prediction

Suppose we have a new data that is generated as below:

> newdat <- dplyr::tibble(Time = sort(unique(dat$Time)), 
+                         z1 = 1 * (Time < median(Time)), 
+                         z2 = runif(1))
> newdat
# A tibble: 100 x 3
     Time    z1    z2
    <dbl> <dbl> <dbl>
 1 0.0168     1 0.640
 2 0.0315     1 0.640
 3 0.0417     1 0.640
 4 0.0606     1 0.640
 5 0.0711     1 0.640
 6 0.0803     1 0.640
 7 0.0872     1 0.640
 8 0.0901     1 0.640
 9 0.102      1 0.640
10 0.105      1 0.640
# … with 90 more rows
…
