…
Prediction

Suppose we have a new data that is generated as below:

> newdat <- dplyr::tibble(Time = sort(unique(dat$Time)), 
+                         z1 = 1 * (Time < median(Time)), 
+                         z2 = runif(1))
> newdat
# A tibble: 100 x 3
     Time    z1    z2
    <dbl> <dbl> <dbl>
 1 0.0168     1 0.707
 2 0.0315     1 0.707
 3 0.0417     1 0.707
 4 0.0606     1 0.707
 5 0.0711     1 0.707
 6 0.0803     1 0.707
 7 0.0872     1 0.707
 8 0.0901     1 0.707
 9 0.102      1 0.707
10 0.105      1 0.707
# ... with 90 more rows
…
