Function to generate simulated data used in the manuscript. — simu • rocTree
…
The returned data.frame can be supply to trueHaz and trueSurv to generate the true cumulative hazard function and the survival function, respectively.

    Examples

set.seed(1)
simu(10, 0.25, 1.2, TRUE)
#> Summary results:
#> Number of subjects: 10
#> Number of subjects experienced death: 9
#> Number of covariates: 10
#> Time independent covaraites: z1 z2 z3 z4 z5 z6 z7 z8 z9 z10
#> Number of unique observation times: 10
#> Median survival time: 0.2983867
#> 
#> # A tibble: 55 x 13
#>       id   Time death    z1    z2    z3    z4    z5    z6    z7    z8    z9
#>    <int>  <dbl> <dbl> <dbl> <dbl> <dbl> <dbl> <dbl> <dbl> <dbl> <dbl> <dbl>
#>  1     1 0.0822     0 0.266 0.206 0.935 0.482 0.821 0.478 0.913 0.339 0.435
#>  2     1 0.123      0 0.266 0.206 0.935 0.482 0.821 0.478 0.913 0.339 0.435
#>  3     1 0.238      0 0.266 0.206 0.935 0.482 0.821 0.478 0.913 0.339 0.435
#>  4     1 0.239      0 0.266 0.206 0.935 0.482 0.821 0.478 0.913 0.339 0.435
#>  5     1 0.250      0 0.266 0.206 0.935 0.482 0.821 0.478 0.913 0.339 0.435
#>  6     1 0.347      1 0.266 0.206 0.935 0.482 0.821 0.478 0.913 0.339 0.435
#>  7     2 0.0822     0 0.372 0.177 0.212 0.600 0.647 0.861 0.294 0.839 0.713
#>  8     2 0.123      0 0.372 0.177 0.212 0.600 0.647 0.861 0.294 0.839 0.713
#>  9     2 0.238      0 0.372 0.177 0.212 0.600 0.647 0.861 0.294 0.839 0.713
#> 10     2 0.239      0 0.372 0.177 0.212 0.600 0.647 0.861 0.294 0.839 0.713
#> # ... with 45 more rows, and 1 more variable: z10 <dbl>

set.seed(1)
simu(10, 0.50, 2.2, TRUE)
#> Summary results:
#> Number of subjects: 10
#> Number of subjects experienced death: 7
#> Number of covariates: 2
#> Time independent covaraites: z1.
#> Time dependent covaraites: z2.
#> Number of unique observation times: 10
#> Median survival time: 0.04646691
#> 
#> # A tibble: 55 x 9
#>       id    Time death    z1    z2     e    u1    u2    u3
#>    <int>   <dbl> <dbl> <dbl> <dbl> <int> <dbl> <dbl> <dbl>
#>  1     1 0.00183     0     0 0.206     1 0.104 0.109 0.212
#>  2     1 0.00536     0     0 0.206     1 0.104 0.109 0.212
#>  3     1 0.00604     0     0 0.206     1 0.104 0.109 0.212
#>  4     1 0.00771     0     0 0.206     1 0.104 0.109 0.212
#>  5     1 0.0335      0     0 0.206     1 0.104 0.109 0.212
#>  6     1 0.0465      0     0 0.206     1 0.104 0.109 0.212
#>  7     1 0.0675      0     0 0.206     1 0.104 0.109 0.212
#>  8     1 0.0757      0     0 0.206     1 0.104 0.109 0.212
#>  9     1 0.0940      0     0 0.206     1 0.104 0.109 0.212
#> 10     1 0.264       0     1 0.206     1 0.104 0.109 0.212
#> # ... with 45 more rows
…
